{
    "establishments": [
        {
            "FHRSID": 528740,
            "LocalAuthorityBusinessID": "PI/000004536",
            "BusinessName": "\"La Pasta Del Sole\"",
            "BusinessType": null,
            "RatingValue": "5",
            "RatingDate": "2014-06-24T00:00:00",
            "links": []
        },
        {
            "FHRSID": 893572,
            "LocalAuthorityBusinessID": "16/00046/COM",
            "BusinessName": "\"Le Petit\" Cafe",
            "BusinessType": null,
            "RatingValue": "4",
            "RatingDate": "2016-07-11T00:00:00",
            "links": []
        },
        {
            "FHRSID": 1016978,
            "LocalAuthorityBusinessID": "63918",
            "BusinessName": "\"Mills Hill Infant School\",",
            "BusinessType": null,
            "RatingValue": "5",
            "RatingDate": "2017-11-24T00:00:00",
            "links": []
        },
        {
            "FHRSID": 903984,
            "LocalAuthorityBusinessID": "159862",
            "BusinessName": "\"Oh Crumbs\" Cakery",
            "BusinessType": null,
            "RatingValue": "5",
            "RatingDate": "2013-10-02T00:00:00",
            "links": []
        },
        {
            "FHRSID": 839411,
            "LocalAuthorityBusinessID": "39925",
            "BusinessName": "\"Olive Branch\" Edgeley Food Bank",
            "BusinessType": null,
            "RatingValue": "4",
            "RatingDate": "2016-12-13T00:00:00",
            "links": []
        },
        {
            "FHRSID": 122188,
            "LocalAuthorityBusinessID": "5076",
            "BusinessName": "\"Playhouse Nursery\" Private Day Nursery",
            "BusinessType": null,
            "RatingValue": "5",
            "RatingDate": "2017-10-12T00:00:00",
            "links": []
        },
        {
            "FHRSID": 468824,
            "LocalAuthorityBusinessID": "1317",
            "BusinessName": "\"Rio Cinema\"",
            "BusinessType": null,
            "RatingValue": "5",
            "RatingDate": "2012-08-31T00:00:00",
            "links": []
        },
        {
            "FHRSID": 517224,
            "LocalAuthorityBusinessID": "12/00039/FOOD",
            "BusinessName": "\"Rory's Bar\"",
            "BusinessType": null,
            "RatingValue": "2",
            "RatingDate": "2016-08-05T00:00:00",
            "links": []
        },
        {
            "FHRSID": 764732,
            "LocalAuthorityBusinessID": "25070",
            "BusinessName": "\"Spindrift\" Private Hotel",
            "BusinessType": null,
            "RatingValue": "4",
            "RatingDate": "2015-05-20T00:00:00",
            "links": []
        },
        {
            "FHRSID": 668968,
            "LocalAuthorityBusinessID": "12/00040/FOOD",
            "BusinessName": "\"Sweetest Thing\"",
            "BusinessType": null,
            "RatingValue": "1",
            "RatingDate": "2017-07-17T00:00:00",
            "links": []
        }
    ],
    "meta": {
        "dataSource": "API",
        "extractDate": "0001-01-01T00:00:00",
        "itemCount": 0,
        "returncode": null,
        "totalCount": 526861,
        "totalPages": 52687,
        "pageSize": 10,
        "pageNumber": 2
    },
    "links": []
}